{
    "data": [
      {
        "name": "Ding closes on Caruana in September Rating List",
        "title": null,
        "id": 65,
        "preview": null,
        "thumbnail": {
          "id": 563,
          "seo": {
            "title": "",
            "alt": ""
          },
          "thumb_url": "https://app.fide.com/upload/563/conversions/cf865604fd698e2c8d9344ebd33bc3ab-thumb.jpg",
          "original_url": "https://app.fide.com/upload/563/cf865604fd698e2c8d9344ebd33bc3ab.jpg"
        },
        "table": "news",
        "slug": "/news/65"
      },
      {
        "name": "World Cup: Vachier-Lagrave and Yu Yangyi reach semifinals",
        "title": null,
        "id": 119,
        "preview": null,
        "thumbnail": {
          "id": 1389,
          "seo": {
            "title": "",
            "alt": ""
          },
          "thumb_url": "https://app.fide.com/upload/1389/conversions/e67203f2b28b5bcc2161998e88ebe8f6-thumb.jpg",
          "original_url": "https://app.fide.com/upload/1389/e67203f2b28b5bcc2161998e88ebe8f6.jpg"
        },
        "table": "news",
        "slug": "/news/119"
      },
      {
        "name": "World Cup Final: Peaceful start",
        "title": null,
        "id": 128,
        "preview": null,
        "thumbnail": {
          "id": 1438,
          "seo": {
            "title": "",
            "alt": ""
          },
          "thumb_url": "https://app.fide.com/upload/1438/conversions/99f57c6bb7aa427517dd43b05960701d-thumb.jpg",
          "original_url": "https://app.fide.com/upload/1438/99f57c6bb7aa427517dd43b05960701d.jpg"
        },
        "table": "news",
        "slug": "/news/128"
      },
      {
        "name": "Goryachkina and Koneru win and lead",
        "title": null,
        "id": 259,
        "preview": null,
        "thumbnail": {
          "id": 3337,
          "seo": {
            "title": "",
            "alt": ""
          },
          "thumb_url": "https://app.fide.com/upload/3337/conversions/278044940f400a1741979e1f6586e1a4-thumb.jpg",
          "original_url": "https://app.fide.com/upload/3337/278044940f400a1741979e1f6586e1a4.jpg"
        },
        "table": "news",
        "slug": "/news/259"
      },
      {
        "name": "Mr. Sheripov announces his candidacy for FIDE President",
        "title": null,
        "id": 1778,
        "preview": null,
        "thumbnail": {
          "id": 16195,
          "seo": {
            "title": "",
            "alt": ""
          },
          "thumb_url": "https://app.fide.com/upload/16195/conversions/a866d3920ef6826eb1f29fb439a1e821-thumb.jpg",
          "original_url": "https://app.fide.com/upload/16195/a866d3920ef6826eb1f29fb439a1e821.jpg"
        },
        "table": "news",
        "slug": "/news/1778"
      },
      {
        "name": "Increased prize fund for the World Senior Championships",
        "title": null,
        "id": 147,
        "preview": null,
        "thumbnail": {
          "id": 1671,
          "seo": {
            "title": "",
            "alt": ""
          },
          "thumb_url": "https://app.fide.com/upload/1671/conversions/9ed8795cbe9b8965f6226f09a2d0ebe3-thumb.jpg",
          "original_url": "https://app.fide.com/upload/1671/9ed8795cbe9b8965f6226f09a2d0ebe3.jpg"
        },
        "table": "news",
        "slug": "/news/147"
      },
      {
        "name": "Grand Prix Jerusalem: Pairings announced",
        "title": null,
        "id": 258,
        "preview": null,
        "thumbnail": {
          "id": 3399,
          "seo": {
            "title": "",
            "alt": ""
          },
          "thumb_url": "https://app.fide.com/upload/3399/conversions/eaf170faa8e583623811c245ddc9b4ca-thumb.jpg",
          "original_url": "https://app.fide.com/upload/3399/eaf170faa8e583623811c245ddc9b4ca.jpg"
        },
        "table": "news",
        "slug": "/news/258"
      },
      {
        "name": "UN adopts July 20 as World Chess Day",
        "title": null,
        "id": 268,
        "preview": null,
        "thumbnail": {
          "id": 10,
          "seo": {
            "title": "",
            "alt": ""
          },
          "thumb_url": "https://app.fide.com/upload/10/conversions/8c7dd922ad47494fc02c388e12c00eac-thumb.jpg",
          "original_url": "https://app.fide.com/upload/10/8c7dd922ad47494fc02c388e12c00eac."
        },
        "table": "news",
        "slug": "/news/268"
      },
      {
        "name": "WASKO Hetman GKS wins the Polish Extraleague 2019",
        "title": null,
        "id": 72,
        "preview": null,
        "thumbnail": {
          "id": 661,
          "seo": {
            "title": "",
            "alt": ""
          },
          "thumb_url": "https://app.fide.com/upload/661/conversions/bf7108ebf648842752ad8139024f9089-thumb.jpg",
          "original_url": "https://app.fide.com/upload/661/bf7108ebf648842752ad8139024f9089.jpg"
        },
        "table": "news",
        "slug": "/news/72"
      },
      {
        "name": "World Cup: Quarterfinals are set",
        "title": null,
        "id": 111,
        "preview": null,
        "thumbnail": {
          "id": 1146,
          "seo": {
            "title": "",
            "alt": ""
          },
          "thumb_url": "https://app.fide.com/upload/1146/conversions/cd4dd106f31962b8786078c36431d45e-thumb.jpg",
          "original_url": "https://app.fide.com/upload/1146/cd4dd106f31962b8786078c36431d45e.jpg"
        },
        "table": "news",
        "slug": "/news/111"
      },
      {
        "name": "FIDE Chess Clock Contract: All Bids Submitted",
        "title": null,
        "id": 77,
        "preview": null,
        "thumbnail": {
          "id": 622,
          "seo": {
            "title": "",
            "alt": ""
          },
          "thumb_url": "https://app.fide.com/upload/622/conversions/5e5dabfee6164a68e5d2e643a50fe337-thumb.jpg",
          "original_url": "https://app.fide.com/upload/622/5e5dabfee6164a68e5d2e643a50fe337.jpg"
        },
        "table": "news",
        "slug": "/news/77"
      },
      {
        "name": "World Junior Blitz and Rapid Championships start in Salobrena, Spain",
        "title": null,
        "id": 80,
        "preview": null,
        "thumbnail": {
          "id": 663,
          "seo": {
            "title": "",
            "alt": ""
          },
          "thumb_url": "https://app.fide.com/upload/663/conversions/bd63bed3d21d78aa7843906ff3d8469f-thumb.jpg",
          "original_url": "https://app.fide.com/upload/663/bd63bed3d21d78aa7843906ff3d8469f.jpg"
        },
        "table": "news",
        "slug": "/news/80"
      },
      {
        "name": "Russia scoops in European Senior Team Chess Championship",
        "title": null,
        "id": 124,
        "preview": null,
        "thumbnail": {
          "id": 1320,
          "seo": {
            "title": "",
            "alt": ""
          },
          "thumb_url": "https://app.fide.com/upload/1320/conversions/d4afc841dd0d5abf4d700ebe45863445-thumb.jpg",
          "original_url": "https://app.fide.com/upload/1320/d4afc841dd0d5abf4d700ebe45863445.jpg"
        },
        "table": "news",
        "slug": "/news/124"
      },
      {
        "name": "Judit Polgar partners with ChessKid in a quest for a new Guinness World Record",
        "title": null,
        "id": 69,
        "preview": null,
        "thumbnail": {
          "id": 625,
          "seo": {
            "title": "",
            "alt": ""
          },
          "thumb_url": "https://app.fide.com/upload/625/conversions/e82baa9d3b6072ea7a49712962a53c56-thumb.jpg",
          "original_url": "https://app.fide.com/upload/625/e82baa9d3b6072ea7a49712962a53c56.jpg"
        },
        "table": "news",
        "slug": "/news/69"
      },
      {
        "name": "FIDE Women's Grand Prix kicks off in Skolkovo",
        "title": null,
        "id": 78,
        "preview": null,
        "thumbnail": {
          "id": 737,
          "seo": {
            "title": "",
            "alt": ""
          },
          "thumb_url": "https://app.fide.com/upload/737/conversions/06ce83e443c1c394480c42def8492874-thumb.jpg",
          "original_url": "https://app.fide.com/upload/737/06ce83e443c1c394480c42def8492874.jpg"
        },
        "table": "news",
        "slug": "/news/78"
      },
      {
        "name": "Dvorkovich and Chiburdanidze open FIDE School in Minsk",
        "title": null,
        "id": 135,
        "preview": null,
        "thumbnail": {
          "id": 1465,
          "seo": {
            "title": "",
            "alt": ""
          },
          "thumb_url": "https://app.fide.com/upload/1465/conversions/03375af251c8fda565efbaf9e12cce59-thumb.jpg",
          "original_url": "https://app.fide.com/upload/1465/03375af251c8fda565efbaf9e12cce59.jpg"
        },
        "table": "news",
        "slug": "/news/135"
      },
      {
        "name": "World Cadet Championship 2019: 7 Medals for China",
        "title": null,
        "id": 67,
        "preview": null,
        "thumbnail": {
          "id": 605,
          "seo": {
            "title": "",
            "alt": ""
          },
          "thumb_url": "https://app.fide.com/upload/605/conversions/608adfff002823ddae49c30f8c060032-thumb.jpg",
          "original_url": "https://app.fide.com/upload/605/608adfff002823ddae49c30f8c060032.jpg"
        },
        "table": "news",
        "slug": "/news/67"
      },
      {
        "name": "New FIDE: first 100 days",
        "title": null,
        "id": 144,
        "preview": null,
        "thumbnail": {
          "id": 1614,
          "seo": {
            "title": "",
            "alt": ""
          },
          "thumb_url": "https://app.fide.com/upload/1614/conversions/9ed8795cbe9b8965f6226f09a2d0ebe3-thumb.jpg",
          "original_url": "https://app.fide.com/upload/1614/9ed8795cbe9b8965f6226f09a2d0ebe3.jpg"
        },
        "table": "news",
        "slug": "/news/144"
      },
      {
        "name": "FIDE abolishes entry fees for the World Senior Championship",
        "title": null,
        "id": 150,
        "preview": null,
        "thumbnail": {
          "id": 1679,
          "seo": {
            "title": "",
            "alt": ""
          },
          "thumb_url": "https://app.fide.com/upload/1679/conversions/a1e9b66dcd753b460810624cebb5acbc-thumb.jpg",
          "original_url": "https://app.fide.com/upload/1679/a1e9b66dcd753b460810624cebb5acbc.jpg"
        },
        "table": "news",
        "slug": "/news/150"
      },
      {
        "name": "World Cup: Ding Liren and Teimour Radjabov through to the semifinals",
        "title": null,
        "id": 116,
        "preview": null,
        "thumbnail": {
          "id": 1391,
          "seo": {
            "title": "",
            "alt": ""
          },
          "thumb_url": "https://app.fide.com/upload/1391/conversions/df3f2170cafd7841b570ddfc4e7266fe-thumb.jpg",
          "original_url": "https://app.fide.com/upload/1391/df3f2170cafd7841b570ddfc4e7266fe.jpg"
        },
        "table": "news",
        "slug": "/news/116"
      }
    ],
    "links": {
      "first": "https://app.fide.com/api/v1/client/search?page=1",
      "last": "https://app.fide.com/api/v1/client/search?page=136",
      "prev": null,
      "next": "https://app.fide.com/api/v1/client/search?page=2"
    },
    "meta": {
      "current_page": 1,
      "from": 1,
      "last_page": 136,
      "path": "https://app.fide.com/api/v1/client/search",
      "per_page": 20,
      "to": 20,
      "total": 2702
    }
  }